{
  "shell_port": 50945,
  "iopub_port": 41177,
  "stdin_port": 46915,
  "control_port": 51769,
  "hb_port": 56387,
  "ip": "127.0.0.1",
  "key": "ddac4cb7-f03e17688c747c719c7e94ed",
  "transport": "tcp",
  "signature_scheme": "hmac-sha256",
  "kernel_name": ""
}